…
### 1\. Problem 1

#### 1.1 Import the dataset and general overview:

``` r
data("instacart")
instacart
## # A tibble: 1,384,617 x 15
##    order_id product_id add_to_cart_ord~ reordered user_id eval_set order_number
##       <int>      <int>            <int>     <int>   <int> <chr>           <int>
##  1        1      49302                1         1  112108 train               4
##  2        1      11109                2         1  112108 train               4
##  3        1      10246                3         0  112108 train               4
##  4        1      49683                4         0  112108 train               4
##  5        1      43633                5         1  112108 train               4
##  6        1      13176                6         0  112108 train               4
##  7        1      47209                7         0  112108 train               4
##  8        1      22035                8         1  112108 train               4
##  9       36      39612                1         0   79431 train              23
## 10       36      19660                2         1   79431 train              23
## # ... with 1,384,607 more rows, and 8 more variables: order_dow <int>,
## #   order_hour_of_day <int>, days_since_prior_order <int>, product_name <chr>,
## #   aisle_id <int>, department_id <int>, aisle <chr>, department <chr>
```
…
#### 1.2 Answer of the following questions:

  - How many aisles are there, and which aisles are the most items
    ordered from?

<!-- end list -->

``` r
instacart %>% 
    count(aisle) %>% 
    arrange(desc(n))
## # A tibble: 134 x 2
##    aisle                              n
##    <chr>                          <int>
##  1 fresh vegetables              150609
##  2 fresh fruits                  150473
##  3 packaged vegetables fruits     78493
##  4 yogurt                         55240
##  5 packaged cheese                41699
##  6 water seltzer sparkling water  36617
##  7 milk                           32644
##  8 chips pretzels                 31269
##  9 soy lactosefree                26240
## 10 bread                          23635
## # ... with 124 more rows
```
…
  mutate(day_type = case_when(
    day == "Saturday" ~ "weekend",
    day == "Sunday"   ~ "weekend",
    TRUE              ~ "weekday"
  )) %>%
  pivot_longer(activity_1:activity_1440,
               names_to = "minutes",
               names_prefix = "activity_",
               values_to = "value") %>%
  mutate(minutes = as.numeric(minutes)) %>%
  rename("week_id" = week)
acc
```

    ## # A tibble: 50,400 x 6
    ##    week_id day_id day    day_type minutes value
    ##      <dbl>  <dbl> <chr>  <chr>      <dbl> <dbl>
    ##  1       1      1 Friday weekday        1  88.4
    ##  2       1      1 Friday weekday        2  82.2
    ##  3       1      1 Friday weekday        3  64.4
    ##  4       1      1 Friday weekday        4  70.0
    ##  5       1      1 Friday weekday        5  75.0
    ##  6       1      1 Friday weekday        6  66.3
    ##  7       1      1 Friday weekday        7  53.8
    ##  8       1      1 Friday weekday        8  47.8
    ##  9       1      1 Friday weekday        9  55.5
    ## 10       1      1 Friday weekday       10  43.0
    ## # ... with 50,390 more rows
…
``` r
# Import and clean the data:

data("ny_noaa")
ny_clean <- ny_noaa %>% 
  mutate(year = year(date),
         month = month(date), 
         day = day(date)) %>%
  mutate(tmax = as.numeric(tmax)/10,
         tmin = as.numeric(tmin)/10) %>%
  select(id:date, year:day, everything())
ny_clean
```

    ## # A tibble: 2,595,176 x 10
    ##    id          date        year month   day  prcp  snow  snwd  tmax  tmin
    ##    <chr>       <date>     <dbl> <dbl> <int> <int> <int> <int> <dbl> <dbl>
    ##  1 US1NYAB0001 2007-11-01  2007    11     1    NA    NA    NA    NA    NA
    ##  2 US1NYAB0001 2007-11-02  2007    11     2    NA    NA    NA    NA    NA
    ##  3 US1NYAB0001 2007-11-03  2007    11     3    NA    NA    NA    NA    NA
    ##  4 US1NYAB0001 2007-11-04  2007    11     4    NA    NA    NA    NA    NA
    ##  5 US1NYAB0001 2007-11-05  2007    11     5    NA    NA    NA    NA    NA
    ##  6 US1NYAB0001 2007-11-06  2007    11     6    NA    NA    NA    NA    NA
    ##  7 US1NYAB0001 2007-11-07  2007    11     7    NA    NA    NA    NA    NA
    ##  8 US1NYAB0001 2007-11-08  2007    11     8    NA    NA    NA    NA    NA
    ##  9 US1NYAB0001 2007-11-09  2007    11     9    NA    NA    NA    NA    NA
    ## 10 US1NYAB0001 2007-11-10  2007    11    10    NA    NA    NA    NA    NA
    ## # ... with 2,595,166 more rows
…
``` r
# Most commonly observed value in snowfall (excluded NA)

table(pull(ny_clean,snow)) %>%
  as.data.frame() %>%
  as_tibble() %>%
  arrange(desc(Freq)) %>%
  select(observation = Var1, frequency = Freq)
```

    ## # A tibble: 281 x 2
    ##    observation frequency
    ##    <fct>           <int>
    ##  1 0             2008508
    ##  2 25              31022
    ##  3 13              23095
    ##  4 51              18274
    ##  5 76              10173
    ##  6 8                9962
    ##  7 5                9748
    ##  8 38               9197
    ##  9 3                8790
    ## 10 102              6552
    ## # ... with 271 more rows
…
